{
  "resolution": "main",
  "tree": {
    "src": "https://raw.githubusercontent.com/DefinitelyTyped/DefinitelyTyped/51868917c7480cc6b1187a59bbd0120effa29841/webpack/webpack.d.ts",
    "raw": "github:DefinitelyTyped/DefinitelyTyped/webpack/webpack.d.ts#51868917c7480cc6b1187a59bbd0120effa29841",
    "typings": "https://raw.githubusercontent.com/DefinitelyTyped/DefinitelyTyped/51868917c7480cc6b1187a59bbd0120effa29841/webpack/webpack.d.ts"
  }
}
