{
  "resolution": "main",
  "tree": {
    "src": "https://raw.githubusercontent.com/louy/typed-mongoose/3e9d9b6d09245a457edcfe202d00f29bc0cf67ae/typings.json",
    "raw": "registry:npm/mongoose#4.3.5+20160610145311",
    "main": "index.d.ts",
    "version": "4.3.5",
    "dependencies": {
      "mpromise": {
        "src": "https://raw.githubusercontent.com/typed-typings/npm-mpromise/a3585faef66f665f3af6ad4e773bbdd35b50a6a9/typings.json",
        "raw": "registry:npm/mpromise#0.5.5+20160524161901",
        "main": "index.d.ts",
        "version": "0.5.5",
        "name": "mpromise",
        "type": "typings"
      }
    },
    "name": "mongoose",
    "type": "typings"
  }
}
